<svg width="31" height="31" viewBox="0 0 104 104" fill="none" xmlns="http://www.w3.org/2000/svg">
<g filter="url(#filter0_d_30_51)">
<path d="M4.62891 43.1754L37.7713 0.563782V24.2369C94.3643 24.2369 100.893 70.0587 99.3215 95.2564C96.9447 82.5439 95.8415 62.114 37.7713 62.114V85.7871L4.62891 43.1754Z" fill="white"/>
</g>
<defs>
<filter id="filter0_d_30_51" x="0.628906" y="0.563782" width="102.893" height="102.693" filterUnits="userSpaceOnUse" color-interpolation-filters="sRGB">
<feFlood flood-opacity="0" result="BackgroundImageFix"/>
<feColorMatrix in="SourceAlpha" type="matrix" values="0 0 0 0 0 0 0 0 0 0 0 0 0 0 0 0 0 0 127 0" result="hardAlpha"/>
<feOffset dy="4"/>
<feGaussianBlur stdDeviation="2"/>
<feComposite in2="hardAlpha" operator="out"/>
<feColorMatrix type="matrix" values="0 0 0 0 0 0 0 0 0 0 0 0 0 0 0 0 0 0 0.25 0"/>
<feBlend mode="normal" in2="BackgroundImageFix" result="effect1_dropShadow_30_51"/>
<feBlend mode="normal" in="SourceGraphic" in2="effect1_dropShadow_30_51" result="shape"/>
</filter>
</defs>
</svg>
